{
  "shell_port": 56415,
  "iopub_port": 53233,
  "stdin_port": 51891,
  "control_port": 43827,
  "hb_port": 47227,
  "ip": "127.0.0.1",
  "key": "058b959f-9287f9f4008db390c6caab0b",
  "transport": "tcp",
  "signature_scheme": "hmac-sha256",
  "kernel_name": ""
}